{
  "type": "service_account",
  "project_id": "quastakita",
  "private_key_id": "918feac880804cbf5f7999e1308201602e0692c0",
  "private_key": "-----BEGIN PRIVATE KEY-----\nMIIEvQIBADANBgkqhkiG9w0BAQEFAASCBKcwggSjAgEAAoIBAQCvvUy1YqhLeEv1\nqzkc/lBqwAmhL7ryvRxeNkzwDDjVxrZ/2tKm+RHPpmyhZjo0jl4KVDDO+N4Xm9th\nFNowt/d8u/yV90Pnu20QAM/cXMR4BhU2T9tQxFMX4fWXKidR8nuQ4ugiz4odPkhP\nq03jCg/gSW43f8EEjADB1v6ErC8AWiakr2KZ9a91VT+UXu5SyNTK4ccjq7aoQhkE\nURJTNwL+H8S9Pcq2eIKBbnz976tcRIKYrbOOCnG6Nvwp8HIkyKCxRxN/WPKwgng3\nBuBcrvVo4QDg/M1GGZ16T5EWMQkq/BaMhgd0MKXFvs6H93sjwZM18n9H+YVg+GIa\nDswxO2e7AgMBAAECggEAAN5qtqraMiVSGtDR43bOZvi0E3vs7K5KqZyTHMyyqzvk\nQxWN3Q12LRShjNq4hvH9PQfVhfBtCKjYmM5FleAS9SboxMUILOkcTOv0Gx7KSd2d\n1Trn1qphzshrMmge8aTFP54fj6x+/k4EhYBPTkQKeA1k4hlblu4qQssRTw6a3OGT\nGLML/seta0PAzlSK0gmhEu2pBgo84QvIFfxGi2Q1svD7mvHJbLSzE58lj7gSHSXo\naFMSsjup+v2eeWwxUZj2j0BGrJ0P/03upQZFVDlLLrE6umrU5Lq/jotqZFCHKBOf\nAn7Zaxl8HGoNmdn2y6nwLgDhLBrLealGOTcMEq/cgQKBgQD1d+nM4lbRnHd+HJ/m\nIMAzKQnrJEbFVk3livvMwt5jrmqmM6UhtxGxIs5o4wkzhSVH0ReWuG9E1mm85wfi\ncXJ442RxVdF0C5a4RDKkw5pIgMofDZdz7QWi+SLDNS+mLANN5PkJUPDF3UOWZQTu\nyK1tswKxipK3xLMduBjYCXQbSwKBgQC3R4XTe9RwENQ3656Ek6dbqSoR9n8UpsPm\nOdZu6dMFHi5dzgb8XInBUDoCCc7lfpxrlW3MykKDSUEHITI/RhOpNxoARi6ErOC6\nc6+bmitEnxKZad3+CllIftOSCvIAiv/Tn8LKB6v0h/Ti4Ou3UQR3uv0Y0GP5fzvg\ncMJePfQvUQKBgG7LokctPny8QB83MmFAFSDCfEybgioeS2i5c/A3YQPjPRYpp3Zx\nWFX43Ovw1j1f8rTYxunr86VBllaCfUeTZ1TzZmnVj4XumSgw+B7wfxoMr66Whu73\nZBzskOlFf21k3lTxbgrrctIMji47CJ/zCnzCWQvj/VdfPG3Eo8oXckXDAoGAXVJj\nyA1zXCSVimvE6UitnLSEIWVby84mTaIBl7QjqKV3gngXgoQz+GS7RLJt0NkpGHab\n0/zg5Sx1mgXDKgiqliziZmVV5mSIgSfKsPZNNcGxnMAVMvdeAtXhMKm2E6SzIrRk\nYK6LVhWsEaHpJAxys+xYVzw0y6OHf36q2YW+QiECgYEA5KDBTRA2gv+BubHcjNSk\n6Z6UCXYAOQcg/qk9xTzRNT6aLzZnebYmMyb4rGl5i27OxoXU2UXjknEKOqIujBFS\nXmLgF5O3av1jKClUn0YbAKCyLWSzuRXNQprmgkR5BhGv9kC6jJRnotG0WtBn3fmc\njAuk2GkdQ0E0SgZ9vkVAc+w=\n-----END PRIVATE KEY-----\n",
  "client_email": "quastakita@appspot.gserviceaccount.com",
  "client_id": "108351994562345260519",
  "auth_uri": "https://accounts.google.com/o/oauth2/auth",
  "token_uri": "https://oauth2.googleapis.com/token",
  "auth_provider_x509_cert_url": "https://www.googleapis.com/oauth2/v1/certs",
  "client_x509_cert_url": "https://www.googleapis.com/robot/v1/metadata/x509/quastakita%40appspot.gserviceaccount.com"
}
